,name,email,contribution,p
0,Damien Elmes,gpg@ankiweb.net,821957,0.990130699271216
1,Glutanimate,glutanimate@users.noreply.github.com,2580,0.0031078720713124132
2,Arthur Milchior,Arthur@Milchior.fr,1354,0.001631030536650003
3,dae,dae@air.local,814,0.0009805456845148467
4,Michal Pokorný (Rai),agentydragon@gmail.com,679,0.0008179244714810577
5,Soren I. Bjornstad,soren.bjornstad@gmail.com,411,0.0004950912485695356
6,Erez Volk,ErezVolk@users.noreply.github.com,288,0.00034692525447208337
7,Houssam Salem,houssam.salem.au@gmail.com,231,0.00027826296452448354
8,Andreas Klauer,Andreas.Klauer@metamorpher.de,144,0.00017346262723604168
9,Simone Gaiarin,simgunz@gmail.com,141,0.00016984882250195747
10,krassowski,krassowski.michal@gmail.com,118,0.00014214298620731194
11,Julien Baley,julien.baley@gmail.com,99,0.00011925555622477865
12,Jian Li,jian@jianli.us,89,0.00010720954044449799
13,Jussi Maatta,jmaatta@nospam.nospam,82,9.877732939830152e-05
14,Dmitry Mikheev,ankitest@users.noreply.github.com,69,8.311750888393664e-05
15,David Lönnhager,dv.lnh.d@gmail.com,69,8.311750888393664e-05
16,Arne Ludwig,arne.ludwig@posteo.de,68,8.191290730590857e-05
17,ijgnd,40218852+ijgnd@users.noreply.github.com,61,7.34806962597121e-05
18,Joel Kitching,kitching@google.com,55,6.62530867915437e-05
19,Pauline Gomér,pauline.gomer@gmail.com,44,5.300246943323496e-05
20,Illia Volochii,illia.volochii@gmail.com,39,4.697946154309462e-05
21,Hans Engel,engel@engel.uk.to,39,4.697946154309462e-05
22,Arthur-Milchior,arthur@milchior.fr,37,4.4570258387038486e-05
23,Henrik Enggaard Hansen,henrik.enggaard@gmail.com,35,4.216105523098235e-05
24,ospalh,ospalh@gmail.com,31,3.7342648918870084e-05
25,Daniel Drake,dan@reactivated.net,31,3.7342648918870084e-05
26,luoliyan,joseph.lorimer13@gmail.com,30,3.613804734084202e-05
27,Aqueminivan,levibey@gmail.com,26,3.131964102872975e-05
28,Bryan Richter,b@chreekat.net,24,2.8910437872673612e-05
29,ispedals,ispedals@users.noreply.github.com,23,2.7705836294645547e-05
30,Mike Blume,mike@loggly.com,23,2.7705836294645547e-05
31,lovac42,lovac42@protonmail.com,22,2.650123471661748e-05
32,Timothy Rae,perceptualchaos2@gmail.com,21,2.529663313858941e-05
33,Piotr Kubowicz,derbeth@interia.pl,21,2.529663313858941e-05
34,dequis,dx@dxzone.com.ar,19,2.288742998253328e-05
35,Self-Perfection,alexander.s.m+git@gmail.com,19,2.288742998253328e-05
36,David Bailey,techdavid@users.noreply.github.com,19,2.288742998253328e-05
37,evandrocoan,evandrocoan@hotmail.com,18,2.168282840450521e-05
38,zjosua,zjosua@hotmail.com,17,2.0478226826477143e-05
39,Marcio Mazza,marciomazza@gmail.com,15,1.806902367042101e-05
40,Mai Lavelle,mai.lavelle@gmail.com,15,1.806902367042101e-05
41,bogdanteleaga,bteleaga@cloudbasesolutions.com,14,1.6864422092392942e-05
42,Rémy Léone,remy.leone@gmail.com,13,1.5659820514364874e-05
43,Joel Meyer-Hamme,joelmeyerhamme@me.com,13,1.5659820514364874e-05
44,Barrie Treloar,baerrach@gmail.com,13,1.5659820514364874e-05
45,hut,hut@lavabit.com,11,1.325061735830874e-05
46,root,upday7@163.com,10,1.2046015780280672e-05
47,Roman Marintšenko,inoryy@gmail.com,10,1.2046015780280672e-05
48,Håkon J D Johnsen,hakon.j.d.johnsen@ntnu.no,10,1.2046015780280672e-05
49,Sindre Wetjen,git@tjenen.de,9,1.0841414202252605e-05
50,noobie,julian.dehm@fu-berlin.de,8,9.636812624224537e-06
51,Roman Franchuk,franchukrom@gmail.com,8,9.636812624224537e-06
52,Soren Bjornstad,soren.bjornstad@gmail.com,7,8.432211046196471e-06
53,Mike Hordecki,mike@hordecki.com,7,8.432211046196471e-06
54,Fionn Kelleher,me@fionn.co,7,8.432211046196471e-06
55,steveaw,swaring@ozemail.com.au,6,7.227609468168403e-06
56,RawToast,jim@jamesmorris.org,6,7.227609468168403e-06
57,Jon-Erik 'TorrentKatten' Johnzon,jon.johnzon@gmail.com,6,7.227609468168403e-06
58,rizzomichaelg,rizzomichaelg@users.noreply.github.com,5,6.023007890140336e-06
59,dubiousjim,dubiousjim@gmail.com,5,6.023007890140336e-06
60,Matthew Hayes,matthew.terence.hayes@gmail.com,5,6.023007890140336e-06
61,Luke Williams,lukecwilliams@users.noreply.github.com,5,6.023007890140336e-06
62,Lovac42,lovac42@protonmail.com,5,6.023007890140336e-06
63,Gabriel McManus,gmcmanus@gmail.com,5,6.023007890140336e-06
64,Yngve Høiseth,yngve@hoiseth.net,4,4.818406312112269e-06
65,Sebastien Guillemot,SebastienGllmt@gmail.com,4,4.818406312112269e-06
66,Andrew Sanchez,inbox.asanchez@gmail.com,4,4.818406312112269e-06
67,rubyu,ruby.u.g@gmail.com,3,3.6138047340842015e-06
68,aakatov,artem.akatov@gmail.com,3,3.6138047340842015e-06
69,Wilco Greven,w.greven@gmail.com,3,3.6138047340842015e-06
70,WOO-CHEOL CHOI,socialpercon@gmail.com,3,3.6138047340842015e-06
71,Victor Khaustov,3192677+vi3itor@users.noreply.github.com,3,3.6138047340842015e-06
72,Derbeth,derbeth@interia.pl,3,3.6138047340842015e-06
73,Christian Krause,chkr@plauener.de,3,3.6138047340842015e-06
74,zandimna,shaoyu0209@tuta.io,2,2.4092031560561343e-06
75,Yann Salimi,ysi@amboss.com,2,2.4092031560561343e-06
76,Thomas TEMPÉ,thomas.tempe@alysse.org,2,2.4092031560561343e-06
77,Paul Hartmann,phaaurlt@gmail.com,2,2.4092031560561343e-06
78,Jonathan Hall,jhall@efolder.net,2,2.4092031560561343e-06
79,Jesse Peterman,38507515+jessepeterman@users.noreply.github.com,2,2.4092031560561343e-06
80,Ian Goodacre,Ian.Goodacre@entrain.co.nz,2,2.4092031560561343e-06
81,Homo computeris,7422433+homocomputeris@users.noreply.github.com,2,2.4092031560561343e-06
82,Fredrick Lockert,lockert.fredrick@gmail.com,2,2.4092031560561343e-06
83,Elender,elendergallas@infraero.gov.br,2,2.4092031560561343e-06
84,Dave Shifflett,dave@corpulentcoffee.com,2,2.4092031560561343e-06
85,BlueGreenMagick,50060875+BlueGreenMagick@users.noreply.github.com,2,2.4092031560561343e-06
86,Alexey Lebedeff,binarin@binarin.ru,2,2.4092031560561343e-06
87,Adam Mesha,adam@mesha.org,2,2.4092031560561343e-06
88,wetriner,ben.dowell@gmail.com,1,1.2046015780280672e-06
89,giqtaqisi,43615398+giqtaqisi@users.noreply.github.com,1,1.2046015780280672e-06
90,black silence,pat@blendpolis.de,1,1.2046015780280672e-06
91,Tomasz Miąsko,tomasz.miasko@gmail.com,1,1.2046015780280672e-06
92,Shuai Lin,linshuai2012@gmail.com,1,1.2046015780280672e-06
93,Shan Rauf,s.rauf124@gmail.com,1,1.2046015780280672e-06
94,Romain,Rom1deTroyes@users.noreply.github.com,1,1.2046015780280672e-06
95,Rob Hoelz,rob@hoelz.ro,1,1.2046015780280672e-06
96,Mark Harmstone,mark@harmstone.com,1,1.2046015780280672e-06
97,Liam Cooke,noreply@liamcooke.com,1,1.2046015780280672e-06
98,Kerrick Staley,kerrick@kerrickstaley.com,1,1.2046015780280672e-06
99,KFGL,aidensaloyd@gmail.com,1,1.2046015780280672e-06
100,Justin Harrison,me@justinharrison.ca,1,1.2046015780280672e-06
101,Juraj Fiala,jurf@riseup.net,1,1.2046015780280672e-06
102,Floren,40320708+emrysn@users.noreply.github.com,1,1.2046015780280672e-06
103,Flavio Lerda,flerda@gmail.com,1,1.2046015780280672e-06
104,Dudemanguy911,5105515+Dudemanguy911@users.noreply.github.com,1,1.2046015780280672e-06
105,Christoph Mack,christophmack@web.de,1,1.2046015780280672e-06
106,Carl Hofmeister,hofmeister.carl@gmail.com,1,1.2046015780280672e-06
107,Blauelf,Blauelf@users.noreply.github.com,1,1.2046015780280672e-06
108,Avi Puchalapalli,github@puchalapalli.com,1,1.2046015780280672e-06
109,Aristotelis,glutanimate@users.noreply.github.com,1,1.2046015780280672e-06
110,Andi Hafner,andihafner@andihafner.com,1,1.2046015780280672e-06
111,Aidan Holm,aidanholm@gmail.com,1,1.2046015780280672e-06
